[gd_scene load_steps=4 format=1]

[ext_resource path="res://sprites/rectangle.png" type="Texture" id=1]
[ext_resource path="res://scripts/flash.gd" type="Script" id=2]

[sub_resource type="Animation" id=1]

resource/name = "fade_out"
length = 0.3
loop = false
step = 0.1
tracks/0/type = "value"
tracks/0/path = NodePath(".:visibility/opacity")
tracks/0/interp = 1
tracks/0/imported = false
tracks/0/keys = {
"times": FloatArray( 0, 0.3 ),
"transitions": FloatArray( 1, 1 ),
"update": 0,
"values": [ 1.0, 0.0 ]
}

[node name="flash" type="Sprite"]

transform/pos = Vector2( -10.852, -11.1053 )
transform/scale = Vector2( 6.21957, 10.7184 )
z/z = 15
texture = ExtResource( 1 )
centered = false
modulate = Color( 1, 0, 0, 1 )
script/script = ExtResource( 2 )

[node name="anim" type="AnimationPlayer" parent="."]

playback/process_mode = 1
playback/default_blend_time = 0.0
root/root = NodePath("..")
anims/fade_out = SubResource( 1 )
playback/active = true
playback/speed = 1.0
blend_times = [  ]
autoplay = ""


